{
    "name": "Ripple",
    "description": "Ripple is default theme for Botble since v2.0",
    "author": "Botble Technologies",
    "version": "5.3",
    "required_plugins": [
        "blog",
        "contact",
        "gallery",
        "language",
        "block",
        "member"
    ]
}
