{
    "name": "Social Login",
    "namespace": "Botble\\SocialLogin\\",
    "provider": "Botble\\SocialLogin\\Providers\\SocialLoginServiceProvider",
    "author": "Botble Technologies",
    "url": "https://botble.com",
    "version": "5.3",
    "description": "Social login for Botble CMS"
}
