{
    "Botble\\Language\\Repositories\\Eloquent\\LanguageRepository": [
        "590ec7681a9920ab9e4c09dbfd050093dd513e3cef6c026af039c1cdbe3b9234",
        "590ec7681a9920ab9e4c09dbfd050093ef77f2129ce604ebeebbe3c103320962",
        "590ec7681a9920ab9e4c09dbfd0500938e216ed657a85a5e13c396e90a8ae12d",
        "590ec7681a9920ab9e4c09dbfd050093a1cdd5594081dc8d4ef54397bf5cd3da",
        "590ec7681a9920ab9e4c09dbfd050093b9d73ca667b2775db4c645009b49dff7",
        "590ec7681a9920ab9e4c09dbfd0500930d1175e5db5f0c4923244f8d94277953",
        "590ec7681a9920ab9e4c09dbfd050093368f29b6b1a264456185bbcf2d856ff9",
        "590ec7681a9920ab9e4c09dbfd05009378c7368bab82c930f22f595c728d7375",
        "590ec7681a9920ab9e4c09dbfd050093a93f46ba3f5b608a57ee45c6b6ec1ed6",
        "590ec7681a9920ab9e4c09dbfd050093669a245fe608b5ba46d24217b456412a",
        "590ec7681a9920ab9e4c09dbfd0500934cdc4ca0234e4db69f30ecb5d2718827",
        "590ec7681a9920ab9e4c09dbfd050093549e7ca22993ecd4c1b7f7b213b5b7bb",
        "590ec7681a9920ab9e4c09dbfd050093429daea8b8cec94f2542d2778e74ff59",
        "590ec7681a9920ab9e4c09dbfd05009309e612a6c85b053618da5612ab3f7e8d",
        "590ec7681a9920ab9e4c09dbfd05009302f509999998be31657417aa5ae77090",
        "590ec7681a9920ab9e4c09dbfd0500937e8392f08251fc4536555a6429c1b6e6",
        "590ec7681a9920ab9e4c09dbfd050093ef689f82c4a44ae4b8ad735d9be4c3fc",
        "590ec7681a9920ab9e4c09dbfd050093fb8c5fa679eca2e2086a0a2602f37f7a",
        "590ec7681a9920ab9e4c09dbfd050093661f574520f9d9adc42dd4a96c1227df"
    ],
    "Botble\\Blog\\Repositories\\Eloquent\\CategoryRepository": [
        "076a466a4ec5f21e40389c09126345474490ffc71471dbfed049cc41af3f5588",
        "076a466a4ec5f21e40389c0912634547488eb9758704ed8f18d1f9353e9cb16e",
        "076a466a4ec5f21e40389c0912634547ef5097175691a6acc633068f89a5dbc7",
        "076a466a4ec5f21e40389c0912634547bdd2e700aadcb33b39bbd849fb5a75bd",
        "076a466a4ec5f21e40389c09126345470f2d4688316e151629749dafcbd0c249",
        "076a466a4ec5f21e40389c09126345471678e3ac6bc869409eefe128fa7a0636",
        "076a466a4ec5f21e40389c0912634547bd0e53761482de5fd8e2c79f3663dcf0",
        "076a466a4ec5f21e40389c091263454790fe710fbde22752a3cd4dc85765dbaa",
        "076a466a4ec5f21e40389c09126345476921d61049e3fedef741c11933942c52"
    ],
    "Botble\\Contact\\Repositories\\Eloquent\\ContactRepository": [
        "ca3a3b7a32ecefd1b0a6c4030dcdc0e707e9e7f1bc3ca401c6158b4e427c64a8",
        "ca3a3b7a32ecefd1b0a6c4030dcdc0e7e8aeda96d5f985bda3859ef4e7c80590",
        "ca3a3b7a32ecefd1b0a6c4030dcdc0e7c69f88e75ac1f0e3d87f0a35516c9000",
        "ca3a3b7a32ecefd1b0a6c4030dcdc0e7a5a5f45fcc81ff8bb47dc289ede5718e",
        "ca3a3b7a32ecefd1b0a6c4030dcdc0e7c04bf8786e5b14b7ce9f053d679ffbcd",
        "ca3a3b7a32ecefd1b0a6c4030dcdc0e7a938f30baf1efd374cc505664eb315bb"
    ],
    "Botble\\Blog\\Repositories\\Eloquent\\PostRepository": [
        "cdc4eb4072e78badbc76dd37306d7a5b1d2c5bdb5582e6dcbcd29e557d78c1ea",
        "cdc4eb4072e78badbc76dd37306d7a5baed1c0367353ff11d44a66db816aee05",
        "cdc4eb4072e78badbc76dd37306d7a5b428c682f4d6aae72aa3dc1036b729efc",
        "cdc4eb4072e78badbc76dd37306d7a5b9ac6e6de8987cae48748d716d1b1aafe",
        "cdc4eb4072e78badbc76dd37306d7a5b9976772b71b1eb5415af290f80b9d41c"
    ],
    "Botble\\Widget\\Repositories\\Eloquent\\WidgetRepository": [
        "8114b8d04fcb1acb28e1466424d10413944accc89a08cdc7ad8ce1782b678381",
        "8114b8d04fcb1acb28e1466424d104139cfc3012f7ab71e1960d9dd51e00c66a",
        "8114b8d04fcb1acb28e1466424d1041360b838a62c614fdb3b10414f1821ad47",
        "8114b8d04fcb1acb28e1466424d10413015da75430556c1abfe1b76950b55db0",
        "8114b8d04fcb1acb28e1466424d10413d170d16dccfc921e08b26c6737a120b8",
        "8114b8d04fcb1acb28e1466424d1041347acd1977538b4fa531dbf6b0a9dd1fc",
        "8114b8d04fcb1acb28e1466424d10413e2dbf47a59df295b010f63204f401a51",
        "8114b8d04fcb1acb28e1466424d1041318ce0b8ab5aaf60453d3dd3098f24227",
        "8114b8d04fcb1acb28e1466424d10413c095a6db4766bebfa5babb6ebbc7c985",
        "8114b8d04fcb1acb28e1466424d10413ee936024e1a21e728e17d4ad552b0f0f"
    ],
    "Botble\\Gallery\\Repositories\\Eloquent\\GalleryRepository": [
        "958c4ac825be926eb0140dab75d45b22c2fdb42352bc7601e61a3185e47e0733"
    ],
    "Botble\\Menu\\Repositories\\Eloquent\\MenuLocationRepository": [
        "6271ead073ae8bd490a3489c0ccf58f7992477f9e76fd8dd3b4e45fa9b8e04ad"
    ],
    "Botble\\Language\\Repositories\\Eloquent\\LanguageMetaRepository": [
        "02e39e2346f3df691f71f0c9dd2f2f53c563dc6c62f9ad4559033dd1b884636e",
        "02e39e2346f3df691f71f0c9dd2f2f535348b41a822ee3e9c5669aa8a833d1e1",
        "02e39e2346f3df691f71f0c9dd2f2f5303652d959b8b126db83bcb01813601ea",
        "02e39e2346f3df691f71f0c9dd2f2f531a96d9333f5534dfefad73b1801cb332",
        "02e39e2346f3df691f71f0c9dd2f2f537a13e24c20106bd3aa99fa4feb8589f4"
    ],
    "Botble\\Menu\\Repositories\\Eloquent\\MenuRepository": [
        "da09e42dd49829df8cccfddcfdc90983e740d28d35c05a76307b2d9324de530c",
        "da09e42dd49829df8cccfddcfdc90983c4e866dfa230c0ee283127a235e8226c",
        "da09e42dd49829df8cccfddcfdc90983cc81b1911382540c9bd4cc47c5bddfeb",
        "da09e42dd49829df8cccfddcfdc90983582469ee2a9dac4ca4a7a6852add2a53",
        "da09e42dd49829df8cccfddcfdc909839b7966dd802dfd3571f679001ea00562",
        "da09e42dd49829df8cccfddcfdc90983ddf6420fa4136e4a6bf16ee3d5a59344",
        "da09e42dd49829df8cccfddcfdc90983f896480141fb8035024cc6168650cff3",
        "da09e42dd49829df8cccfddcfdc90983ed0a54d75e3d561ad498336eb2e92be7"
    ],
    "Botble\\Menu\\Repositories\\Eloquent\\MenuNodeRepository": [
        "cb1c2543c2ffae99853dba4e30c602dc16a6d162a987cba2c43f5a6ddf58a91e",
        "cb1c2543c2ffae99853dba4e30c602dc4994f81134db7e990f6d76f78df0296c",
        "cb1c2543c2ffae99853dba4e30c602dccb49415ba1333b3ec4de342e7cb20588",
        "cb1c2543c2ffae99853dba4e30c602dcb5f8a0f717209eb1a309f59d85298ef6"
    ]
}